2018-04-18 11:14:16
---------------------------------------
2018-04-18 11:17:10
---------------------------------------
2018-04-18 11:18:52
---------------------------------------
2018-04-18 11:20:24
---------------------------------------
2018-04-18 11:24:04
---------------------------------------
2018-04-18 11:25:42
---------------------------------------
2018-04-18 11:25:42
---------------------------------------
2018-04-18 11:27:27
---------------------------------------
2018-04-18 11:27:27
---------------------------------------
